<svg xmlns="http://www.w3.org/2000/svg" viewBox="0 0 39.72 39.72">
<g id="Layer_2" data-name="Layer 2">
<g id="Layer_1-2" data-name="Layer 1">
<path d="M19.86,0A19.86,19.86,0,1,0,39.72,19.86,19.88,19.88,0,0,0,19.86,0ZM24.8,20.56H21.57V32.08H16.78V20.56H14.5V16.49h2.28V13.86c0-1.88.9-4.83,4.83-4.83l3.55,0v4H22.59a1,1,0,0,0-1,1.11v2.39h3.65Zm0,0"/>
</g>
</g>
</svg>