<svg xmlns="http://www.w3.org/2000/svg" viewBox="0 0 110 110">
<path d="M81,29.79l23.14,6.08L110,12.73l-4.44-1.17-3.82,14.57a55,55,0,1,0,.7,56.59L98.1,80.64a50.21,50.21,0,1,1,.16-51L82.19,25.34Zm0,0"/>
<path d="M47.59,17.62V59.27L74.49,72.35l2.09-4.2L52.28,56.46V17.62Zm0,0"/>
</svg>